^C:\USERS\120295273\SOURCE\REPOS\EXERCISE-2-PLAYING-CARDS\ESB.EXERCISE2\DEBUG\MAIN.OBJ
C:\USERS\120295273\SOURCE\REPOS\EXERCISE-2-PLAYING-CARDS\DEBUG\ESB.EXERCISE2.EXE
C:\USERS\120295273\SOURCE\REPOS\EXERCISE-2-PLAYING-CARDS\DEBUG\ESB.EXERCISE2.ILK
C:\USERS\120295273\SOURCE\REPOS\EXERCISE-2-PLAYING-CARDS\DEBUG\ESB.EXERCISE2.PDB
